13 15 1
17 10 1
6 2 1
16 7 1
6 18 1
3 16 1
18 19 1
13 4 1
8 17 1
17 8 1
3 13 1
18 19 1
1 4 1
2 15 1
18 17 1
10 6 1
8 12 1
16 18 1
12 4 1
14 15 1
15 2 1
9 18 1
11 16 1
10 12 1
3 12 1
3 7 1
10 8 1
17 4 1
17 9 1
9 13 1
17 13 1
17 16 1
6 14 1
9 11 1
15 17 1
16 6 1
17 13 1
9 11 1
2 10 1
19 1 1
10 9 1
6 13 1
3 9 1
19 13 1
15 17 1
11 12 1
1 8 1
1 13 1
5 7 1
12 20 1
4 3 2
7 14 2
16 5 2
1 4 2
8 7 2
9 12 2
19 8 2
8 14 2
15 3 2
2 17 2
3 7 2
9 18 2
16 10 2
6 10 2
13 5 2
15 7 2
14 9 2
17 11 2
12 18 2
13 9 2
4 15 2
3 8 2
19 18 2
4 20 2
20 16 2
1 18 2
17 3 2
19 7 2
16 4 2
5 19 2
15 7 2
10 3 2
10 20 2
17 3 2
20 18 2
10 11 2
5 13 2
7 5 2
18 4 2
13 12 2
14 10 2
6 10 2
15 1 2
14 17 2
1 19 2
7 10 2
15 4 2
14 17 2
4 12 2
20 7 2
4 16 2
12 7 2
8 2 2
14 20 2
18 6 2
5 13 2
2 4 2
3 2 2
1 14 2
3 17 2
6 17 2
4 7 2
6 3 2
14 7 2
8 6 2
1 7 2
19 13 2
9 19 2
6 16 2
3 16 2
13 9 2
9 1 2
9 13 2
10 14 2
17 1 2
13 7 2
8 11 2
19 16 2
4 15 2
6 16 2
8 18 2
5 20 2
19 2 2
9 10 2
13 18 2
4 2 2
8 9 2
17 12 2
4 11 2
1 3 2
7 8 2
13 6 2
19 15 2
17 6 2
10 4 2
17 1 2
9 15 2
3 10 2
16 10 2
9 3 2
18 10 2
10 7 2
2 12 2
5 19 2
12 17 2
4 19 2
16 1 2
3 13 2
13 1 2
7 9 2
9 8 2
2 11 2
9 15 2
20 4 2
20 2 2
6 15 2
20 15 2
2 4 2
7 8 2
15 11 2
17 14 2
13 14 2
16 15 2
3 15 2
11 1 2
18 16 2
5 12 2
8 11 2
8 14 2
2 18 2
20 11 2
5 3 2
4 15 2
12 3 2
13 7 2
13 20 2
11 2 2
3 13 2
13 18 2
9 20 2
11 15 2
20 7 2
10 19 2
14 9 2
16 11 2
9 1 2
8 16 2
1 12 2
11 20 2
4 15 2
17 14 2
6 20 2
8 18 2
10 19 2
18 19 2
5 11 2
13 10 2
6 11 2
9 10 2
5 8 2
4 13 2
5 15 2
19 4 2
15 17 2
3 13 2
20 3 2
11 17 2
16 15 2
20 13 2
16 10 2
11 3 2
9 17 2
15 4 2
4 8 2
13 11 2
17 6 2
13 12 2
11 3 2
18 12 2
2 15 2
16 8 2
12 3 2
18 15 2
16 18 2
7 14 2
12 3 2
20 11 2
4 2 2
2 12 2
4 14 2
10 8 2
7 16 2
4 6 2
16 3 2
14 11 2
14 17 2
3 5 2
9 19 2
3 4 2
4 7 2
3 19 2
19 17 2
4 1 2
17 14 2
17 8 2
16 4 2
13 19 2
4 11 2
10 5 2
6 4 2
18 6 2
13 9 2
19 16 2
13 4 2
6 8 2
6 14 2
9 13 2
12 19 2
20 1 2
11 20 2
7 19 2
9 4 2
19 16 2
14 6 2
9 2 2
20 9 2
4 9 2
18 7 2
18 15 2
6 16 2
2 3 2
19 5 2
14 17 2
19 17 2
20 16 2
18 13 2
8 12 2
10 14 2
8 18 2
9 14 2
11 6 2
15 14 2
7 6 2
10 9 2
12 9 2
19 16 2
13 5 2
5 19 2
12 9 2
16 3 2