18 9 1
18 17 1
15 13 1
11 2 1
7 16 1
10 7 1
19 13 1
13 15 1
8 12 1
2 16 1
18 7 1
9 7 1
1 18 1
6 9 1
17 3 1
2 13 1
13 2 1
17 1 1
4 16 1
7 6 1
1 7 1
4 11 1
11 9 1
10 13 1
3 20 1
3 11 1
11 2 1
3 6 1
12 13 1
17 11 1
18 3 1
2 3 1
12 13 1
17 7 1
3 1 1
10 6 1
11 2 1
12 6 1
1 3 1
7 8 1
18 5 1
17 12 1
13 5 1
20 1 1
13 11 1
14 12 1
11 14 1
18 7 1
17 14 1
4 14 1
10 14 2
5 11 2
16 11 2
11 4 2
5 20 2
9 18 2
15 9 2
17 11 2
19 9 2
9 19 2
6 10 2
12 1 2
18 16 2
4 1 2
10 2 2
17 13 2
4 3 2
8 4 2
12 14 2
16 10 2
7 8 2
1 12 2
10 11 2
14 7 2
12 1 2
10 12 2
3 17 2
4 19 2
14 9 2
11 13 2
19 18 2
3 18 2
14 12 2
17 16 2
20 6 2
9 14 2
8 6 2
9 7 2
16 8 2
1 4 2
10 6 2
19 18 2
18 13 2
7 13 2
8 14 2
16 8 2
3 16 2
2 9 2
11 19 2
14 4 2
1 8 2
18 15 2
14 16 2
3 14 2
19 12 2
18 12 2
14 8 2
13 12 2
13 1 2
6 20 2
18 17 2
14 20 2
10 4 2
7 8 2
18 14 2
9 17 2
10 20 2
1 7 2
4 7 2
1 18 2
2 8 2
10 17 2
11 20 2
9 7 2
17 8 2
15 13 2
18 19 2
7 3 2
12 15 2
1 5 2
5 13 2
13 9 2
16 11 2
13 5 2
7 17 2
9 14 2
19 4 2
3 11 2
16 7 2
6 2 2
6 1 2
14 16 2
2 14 2
1 17 2
8 12 2
10 20 2
10 5 2
5 20 2
16 10 2
13 19 2
11 20 2
18 16 2
16 10 2
2 4 2
15 8 2
11 15 2
9 18 2
8 2 2
11 19 2
12 15 2
7 16 2
19 10 2
5 17 2
11 14 2
18 2 2
6 4 2
16 5 2
20 5 2
3 19 2
20 11 2
18 14 2
7 2 2
20 4 2
13 18 2
14 15 2
17 13 2
15 14 2
1 15 2
11 17 2
19 14 2
20 17 2
10 8 2
14 2 2
3 6 2
3 16 2
6 9 2
20 9 2
8 18 2
1 10 2
8 19 2
14 6 2
14 10 2
1 7 2
3 4 2
2 4 2
14 3 2
16 14 2
8 6 2
16 2 2
12 4 2
13 8 2
1 3 2
17 15 2
20 10 2
8 2 2
14 13 2
17 11 2
7 1 2
7 1 2
12 17 2
9 4 2
7 11 2
5 7 2
15 6 2
18 16 2
12 2 2
17 20 2
3 16 2
19 3 2
5 7 2
11 17 2
15 20 2
2 4 2
15 4 2
14 1 2
5 16 2
8 4 2
9 18 2
5 19 2
20 15 2
11 2 2
2 15 2
13 18 2
16 2 2
4 12 2
16 13 2
13 10 2
11 3 2
7 18 2
10 8 2
11 17 2
13 4 2
13 4 2
5 6 2
3 17 2
6 2 2
14 11 2
19 13 2
14 11 2
7 11 2
14 20 2
9 8 2
8 20 2
5 1 2
3 12 2
18 6 2
20 2 2
10 4 2
20 2 2
8 2 2
1 13 2
3 9 2
6 11 2
2 6 2
11 13 2
2 17 2
4 11 2
7 13 2
5 17 2
3 6 2
19 9 2
16 9 2
16 2 2
16 14 2
19 4 2
3 7 2
10 4 2
10 18 2
3 15 2
1 14 2
7 19 2
19 14 2
9 4 2
14 2 2
19 3 2
2 17 2
11 16 2
7 20 2
16 3 2
1 20 2
6 13 2
15 3 2
16 4 2
15 19 2
2 5 2
5 7 2
6 8 2
17 13 2
18 16 2
17 10 2